Belle Schmidt - Mini Project 2: Simulation
…
ℹ Use `spec()` to retrieve the full column specification for this data.
ℹ Specify the column types or set `show_col_types = FALSE` to quiet this message.

Simulating behavior under a null hypothesis: Are Students That Abstain From Drinking More Likely to Have Moderate Depression Than Moderate Drinkers?

SleepStudy2 <- SleepStudy |>
  select(AlcoholUse, DepressionStatus) |>
  filter(AlcoholUse %in% c("Abstain", "Moderate")) 

SleepStudy2

# A tibble: 154 × 2
   AlcoholUse DepressionStatus
   <chr>      <chr>           
 1 Moderate   normal          
 2 Moderate   normal          
 3 Moderate   normal          
 4 Abstain    moderate        
 5 Moderate   normal          
 6 Moderate   normal          
 7 Moderate   normal          
 8 Moderate   normal          
 9 Moderate   moderate        
10 Abstain    normal          
# ℹ 144 more rows

SleepStudy2 |>
  count()

# A tibble: 1 × 1
      n
  <int>
1   154

SleepStudy2

# A tibble: 154 × 2
   AlcoholUse DepressionStatus
   <chr>      <chr>           
 1 Moderate   normal          
 2 Moderate   normal          
 3 Moderate   normal          
 4 Abstain    moderate        
 5 Moderate   normal          
 6 Moderate   normal          
 7 Moderate   normal          
 8 Moderate   normal          
 9 Moderate   moderate        
10 Abstain    normal          
# ℹ 144 more rows
…
